0 8 0
1 8 0.0125
2 8 0.025
3 8 0.0375
4 8 0.05
5 8 0.0625
6 8 0.075
7 8 0.0875
8 8 0.1
0 7 0.1125
1 7 0.125
2 7 0.1375
3 7 0.15
4 7 0.1625
5 7 0.175
6 7 0.1875
7 7 0.2
8 7 0.2125
0 6 0.225
1 6 0.2375
2 6 0.25
3 6 0.2625
4 6 0.275
5 6 0.2875
6 6 0.3
7 6 0.3125
8 6 0.325
0 5 0.3375
1 5 0.35
2 5 0.3625
3 5 0.375
4 5 0.3875
5 5 0.4
6 5 0.4125
7 5 0.425
8 5 0.4375
0 4 0.45
1 4 0.4625
2 4 0.475
3 4 0.4875
4 4 0.5
5 4 0.5125
6 4 0.525
7 4 0.5375
8 4 0.55
0 3 0.5625
1 3 0.575
2 3 0.5875
3 3 0.6
4 3 0.6125
5 3 0.625
6 3 0.6375
7 3 0.65
8 3 0.6625
0 2 0.675
1 2 0.6875
2 2 0.7
3 2 0.7125
4 2 0.725
5 2 0.7375
6 2 0.75
7 2 0.7625
8 2 0.775
0 1 0.7875
1 1 0.8
2 1 0.8125
3 1 0.825
4 1 0.8375
5 1 0.85
6 1 0.8625
7 1 0.875
8 1 0.8875
0 0 0.9
1 0 0.9125
2 0 0.925
3 0 0.9375
4 0 0.95
5 0 0.9625
6 0 0.975
7 0 0.9875
8 0 1
