0 7 0
1 7 0.015873
2 7 0.031746
3 7 0.047619
4 7 0.0634921
5 7 0.0793651
6 7 0.0952381
7 7 0.111111
0 6 0.126984
1 6 0.142857
2 6 0.15873
3 6 0.174603
4 6 0.190476
5 6 0.206349
6 6 0.222222
7 6 0.238095
0 5 0.253968
1 5 0.269841
2 5 0.285714
3 5 0.301587
4 5 0.31746
5 5 0.333333
6 5 0.349206
7 5 0.365079
0 4 0.380952
1 4 0.396825
2 4 0.412698
4 3 0.428571
4 4 0.444444
5 4 0.460317
6 4 0.47619
7 4 0.492063
0 3 0.507937
1 3 0.52381
2 3 0.539683
3 3 0.555556
3 4 0.571429
5 3 0.587302
6 3 0.603175
7 3 0.619048
0 2 0.634921
1 2 0.650794
2 2 0.666667
3 2 0.68254
4 2 0.698413
5 2 0.714286
6 2 0.730159
7 2 0.746032
0 1 0.761905
1 1 0.777778
2 1 0.793651
3 1 0.809524
4 1 0.825397
5 1 0.84127
6 1 0.857143
7 1 0.873016
0 0 0.888889
1 0 0.904762
2 0 0.920635
3 0 0.936508
4 0 0.952381
5 0 0.968254
6 0 0.984127
7 0 1
