0 9 0
1 9 0.010101
2 9 0.020202
3 9 0.030303
4 9 0.040404
5 9 0.0505051
6 9 0.0606061
7 9 0.0707071
8 9 0.0808081
9 9 0.0909091
0 8 0.10101
1 8 0.111111
2 8 0.121212
3 8 0.131313
4 8 0.141414
5 8 0.151515
6 8 0.161616
2 1 0.171717
8 8 0.181818
9 8 0.191919
0 7 0.20202
1 7 0.212121
2 7 0.222222
3 7 0.232323
4 7 0.242424
5 7 0.252525
6 7 0.262626
7 7 0.272727
8 7 0.282828
9 7 0.292929
0 6 0.30303
1 6 0.313131
2 6 0.323232
3 6 0.333333
4 6 0.343434
5 6 0.353535
6 6 0.363636
7 6 0.373737
8 6 0.383838
9 6 0.393939
0 5 0.40404
1 5 0.414141
2 5 0.424242
3 5 0.434343
4 5 0.444444
5 5 0.454545
6 5 0.464646
7 5 0.474747
8 5 0.484848
9 5 0.494949
0 4 0.505051
1 4 0.515152
2 4 0.525253
3 4 0.535354
4 4 0.545455
5 4 0.555556
6 4 0.565657
7 4 0.575758
8 4 0.585859
9 4 0.59596
0 3 0.606061
1 3 0.616162
2 3 0.626263
3 3 0.636364
4 3 0.646465
5 3 0.656566
6 3 0.666667
7 3 0.676768
8 3 0.686869
9 3 0.69697
0 2 0.707071
1 2 0.717172
2 2 0.727273
3 2 0.737374
4 2 0.747475
5 2 0.757576
6 2 0.767677
7 2 0.777778
8 2 0.787879
9 2 0.79798
0 1 0.808081
1 1 0.818182
7 8 0.828283
3 1 0.838384
4 1 0.848485
5 1 0.858586
6 1 0.868687
7 1 0.878788
8 1 0.888889
9 1 0.89899
0 0 0.909091
1 0 0.919192
2 0 0.929293
3 0 0.939394
4 0 0.949495
5 0 0.959596
6 0 0.969697
7 0 0.979798
8 0 0.989899
9 0 1
