0 6 0
1 6 0.0208333
2 6 0.0416667
3 6 0.0625
4 6 0.0833333
5 6 0.104167
6 6 0.125
0 5 0.145833
1 5 0.166667
2 5 0.1875
3 5 0.208333
4 5 0.229167
5 5 0.25
6 5 0.270833
0 4 0.291667
1 4 0.3125
2 4 0.333333
3 4 0.354167
4 4 0.375
5 4 0.395833
6 4 0.416667
0 3 0.4375
1 3 0.458333
2 3 0.479167
3 3 0.5
4 3 0.520833
5 3 0.541667
6 3 0.5625
0 2 0.583333
1 2 0.604167
2 2 0.625
3 2 0.645833
4 2 0.666667
5 2 0.6875
6 2 0.708333
0 1 0.729167
1 1 0.75
2 1 0.770833
3 1 0.791667
4 1 0.8125
5 1 0.833333
6 1 0.854167
0 0 0.875
1 0 0.895833
2 0 0.916667
3 0 0.9375
4 0 0.958333
5 0 0.979167
6 0 1
