0 5 0
1 5 0.0285714
2 5 0.0571429
3 5 0.0857143
4 5 0.114286
5 5 0.142857
0 4 0.171429
1 4 0.2
2 4 0.228571
3 4 0.257143
4 4 0.285714
5 4 0.314286
0 3 0.342857
1 3 0.371429
2 3 0.4
3 3 0.428571
4 3 0.457143
0 2 0.485714
5 3 0.514286
1 2 0.542857
2 2 0.571429
3 2 0.6
4 2 0.628571
5 2 0.657143
0 1 0.685714
1 1 0.714286
2 1 0.742857
3 1 0.771429
4 1 0.8
5 1 0.828571
0 0 0.857143
1 0 0.885714
2 0 0.914286
3 0 0.942857
4 0 0.971429
5 0 1
