0 10 0
1 10 0.00833333
2 10 0.0166667
3 10 0.025
4 10 0.0333333
5 10 0.0416667
6 10 0.05
7 10 0.0583333
8 10 0.0666667
9 10 0.075
10 10 0.0833333
0 9 0.0916667
1 9 0.1
2 9 0.108333
3 9 0.116667
4 9 0.125
5 9 0.133333
6 9 0.141667
7 9 0.15
8 9 0.158333
9 9 0.166667
10 9 0.175
0 8 0.183333
1 8 0.191667
2 8 0.2
3 8 0.208333
4 8 0.216667
5 8 0.225
6 8 0.233333
7 8 0.241667
8 8 0.25
9 8 0.258333
10 8 0.266667
0 7 0.275
1 7 0.283333
2 7 0.291667
3 7 0.3
4 7 0.308333
5 7 0.316667
6 7 0.325
7 7 0.333333
8 7 0.341667
9 7 0.35
10 7 0.358333
0 6 0.366667
1 6 0.375
2 6 0.383333
3 6 0.391667
4 6 0.4
5 6 0.408333
6 6 0.416667
7 6 0.425
8 6 0.433333
9 6 0.441667
10 6 0.45
0 5 0.458333
1 5 0.466667
8 5 0.475
3 5 0.483333
4 5 0.491667
5 5 0.5
6 5 0.508333
7 5 0.516667
2 5 0.525
9 5 0.533333
10 5 0.541667
0 4 0.55
1 4 0.558333
2 4 0.566667
3 4 0.575
4 4 0.583333
5 4 0.591667
6 4 0.6
7 4 0.608333
8 4 0.616667
9 4 0.625
10 4 0.633333
0 3 0.641667
1 3 0.65
2 3 0.658333
3 3 0.666667
4 3 0.675
5 3 0.683333
6 3 0.691667
7 3 0.7
8 3 0.708333
9 3 0.716667
10 3 0.725
0 2 0.733333
1 2 0.741667
2 2 0.75
3 2 0.758333
4 2 0.766667
5 2 0.775
6 2 0.783333
7 2 0.791667
8 2 0.8
9 2 0.808333
10 2 0.816667
0 1 0.825
1 1 0.833333
2 1 0.841667
3 1 0.85
4 1 0.858333
5 1 0.866667
6 1 0.875
7 1 0.883333
8 1 0.891667
9 1 0.9
10 1 0.908333
0 0 0.916667
1 0 0.925
2 0 0.933333
3 0 0.941667
4 0 0.95
5 0 0.958333
6 0 0.966667
7 0 0.975
8 0 0.983333
9 0 0.991667
10 0 1
