0 11 0
1 11 0.00699301
2 11 0.013986
3 11 0.020979
4 11 0.027972
5 11 0.034965
6 11 0.041958
7 11 0.048951
8 11 0.0559441
9 11 0.0629371
10 11 0.0699301
11 11 0.0769231
0 10 0.0839161
1 10 0.0909091
2 10 0.0979021
3 10 0.104895
4 10 0.111888
5 10 0.118881
6 10 0.125874
7 10 0.132867
8 10 0.13986
9 10 0.146853
10 10 0.153846
11 10 0.160839
0 9 0.167832
1 9 0.174825
2 9 0.181818
3 9 0.188811
4 9 0.195804
5 9 0.202797
6 9 0.20979
7 9 0.216783
8 9 0.223776
9 9 0.230769
10 9 0.237762
0 2 0.244755
0 8 0.251748
1 8 0.258741
2 8 0.265734
3 8 0.272727
4 8 0.27972
5 8 0.286713
6 8 0.293706
7 8 0.300699
8 8 0.307692
9 8 0.314685
10 8 0.321678
11 8 0.328671
0 7 0.335664
1 7 0.342657
2 7 0.34965
3 7 0.356643
4 7 0.363636
5 7 0.370629
6 7 0.377622
7 7 0.384615
8 7 0.391608
9 7 0.398601
10 7 0.405594
11 7 0.412587
0 6 0.41958
1 6 0.426573
2 6 0.433566
3 6 0.440559
4 6 0.447552
5 6 0.454545
6 6 0.461538
7 6 0.468531
8 6 0.475524
9 6 0.482517
10 6 0.48951
11 6 0.496503
0 5 0.503497
1 5 0.51049
2 5 0.517483
3 5 0.524476
4 5 0.531469
5 5 0.538462
6 5 0.545455
7 5 0.552448
8 5 0.559441
9 5 0.566434
10 5 0.573427
11 5 0.58042
0 4 0.587413
1 4 0.594406
2 4 0.601399
3 4 0.608392
4 4 0.615385
5 4 0.622378
6 4 0.629371
7 4 0.636364
8 4 0.643357
9 4 0.65035
10 4 0.657343
11 4 0.664336
0 3 0.671329
1 3 0.678322
2 3 0.685315
3 3 0.692308
4 3 0.699301
5 3 0.706294
6 3 0.713287
7 3 0.72028
8 3 0.727273
9 3 0.734266
10 3 0.741259
11 3 0.748252
11 9 0.755245
1 2 0.762238
2 2 0.769231
3 2 0.776224
4 2 0.783217
5 2 0.79021
6 2 0.797203
7 2 0.804196
8 2 0.811189
9 2 0.818182
10 2 0.825175
11 2 0.832168
0 1 0.839161
1 1 0.846154
2 1 0.853147
3 1 0.86014
4 1 0.867133
5 1 0.874126
6 1 0.881119
7 1 0.888112
8 1 0.895105
9 1 0.902098
10 1 0.909091
11 1 0.916084
0 0 0.923077
1 0 0.93007
2 0 0.937063
3 0 0.944056
4 0 0.951049
5 0 0.958042
6 0 0.965035
7 0 0.972028
8 0 0.979021
9 0 0.986014
10 0 0.993007
11 0 1
