0 4 0
1 4 0.0416667
2 4 0.0833333
3 4 0.125
4 4 0.166667
0 3 0.208333
1 3 0.25
2 3 0.291667
3 3 0.333333
4 3 0.375
4 2 0.416667
1 2 0.458333
2 2 0.5
3 2 0.541667
0 2 0.583333
0 1 0.625
1 1 0.666667
2 1 0.708333
3 1 0.75
4 1 0.791667
0 0 0.833333
1 0 0.875
2 0 0.916667
3 0 0.958333
4 0 1
